{
  "name": "P002 Performer",
  "description": "The performer of P002 Report Delivery Note",
  "main": "Main.xaml",
  "dependencies": {
    "Monitor": "[1.0.65]",
    "UiPath.Excel.Activities": "[2.7.2]",
    "UiPath.System.Activities": "[19.10.1]",
    "UiPath.UIAutomation.Activities": "[19.11.1]",
    "UpoNor": "[1.0.27]"
  },
  "webServices": [],
  "schemaVersion": "4.0",
  "studioVersion": "19.10.4.0",
  "projectVersion": "1.0.0",
  "runtimeOptions": {
    "autoDispose": false,
    "isPausable": true,
    "requiresUserInteraction": true,
    "supportsPersistence": false,
    "excludedLoggedData": [
      "Private:*",
      "*password*"
    ],
    "executionType": "Workflow"
  },
  "designOptions": {
    "projectProfile": "Developement",
    "outputType": "Process",
    "libraryOptions": {
      "includeOriginalXaml": false,
      "privateWorkflows": []
    },
    "fileInfos": []
  },
  "expressionLanguage": "VisualBasic"
}